{
    "$schema": "http://json-schema.org/schema",
    "name": "nx-pyth",
    "version": "0.0.1",
    "generators": {
        "create": {
            "factory": "./src/generators/create/generator",
            "schema": "./src/generators/create/schema.json",
            "description": "nx deploy generator"
        }
    }
}