{
  "$schema": "http://json-schema.org/schema",
  "$id": "Create",
  "title": "",
  "type": "object",
  "properties": {
    "name": {
      "type": "string",
      "description": "",
      "$default": {
        "$source": "argv",
        "index": 0
      },
      "x-prompt": "What name would you like to use?"
    }
  },
  "required": ["name"]
}
